\relax 
\providecommand\hyper@newdestlabel[2]{}
\providecommand\HyperFirstAtBeginDocument{\AtBeginDocument}
\HyperFirstAtBeginDocument{\ifx\hyper@anchor\@undefined
\global\let\oldcontentsline\contentsline
\gdef\contentsline#1#2#3#4{\oldcontentsline{#1}{#2}{#3}}
\global\let\oldnewlabel\newlabel
\gdef\newlabel#1#2{\newlabelxx{#1}#2}
\gdef\newlabelxx#1#2#3#4#5#6{\oldnewlabel{#1}{{#2}{#3}}}
\AtEndDocument{\ifx\hyper@anchor\@undefined
\let\contentsline\oldcontentsline
\let\newlabel\oldnewlabel
\fi}
\fi}
\global\let\hyper@last\relax 
\gdef\HyperFirstAtBeginDocument#1{#1}
\providecommand\HyField@AuxAddToFields[1]{}
\providecommand\HyField@AuxAddToCoFields[2]{}
\citation{StreetViewVR}
\citation{GoogleEarthVR}
\citation{Unity3D}
\citation{StreetViewVR}
\citation{GoogleMaps}
\citation{bingAPI}
\citation{GoogleMaps}
\citation{GoogleEarthVR}
\@writefile{lof}{\contentsline {figure}{\numberline {1}{\ignorespaces An example of terrain rendering in our application.\relax }}{1}{figure.1}}
\@LN@col{1}
\@writefile{toc}{\contentsline {section}{\numberline {1}Introduction}{1}{section.1}}
\@writefile{toc}{\contentsline {subsection}{\numberline {1.1}Framework}{1}{subsection.1.1}}
\@LN@col{2}
\@writefile{toc}{\contentsline {section}{\numberline {2}Related Work}{1}{section.2}}
\@writefile{toc}{\contentsline {subsection}{\numberline {2.1}Viso Places}{1}{subsection.2.1}}
\@writefile{toc}{\contentsline {subsection}{\numberline {2.2}Google Maps}{1}{subsection.2.2}}
\citation{HumanCenteredDesign}
\citation{HumanCenteredDesign}
\citation{HumanCenteredDesign}
\citation{gpxFormat}
\citation{kmlFormat}
\citation{igcFormat}
\@LN@col{1}
\@writefile{toc}{\contentsline {subsection}{\numberline {2.3}Google Earth VR}{2}{subsection.2.3}}
\@writefile{toc}{\contentsline {section}{\numberline {3}User Interaction and Interfaces}{2}{section.3}}
\newlabel{UserInteraction}{{3}{2}{User Interaction and Interfaces}{section.3}{}}
\@writefile{toc}{\contentsline {subsection}{\numberline {3.1}Motion Sickness}{2}{subsection.3.1}}
\@LN@col{2}
\@writefile{lof}{\contentsline {figure}{\numberline {2}{\ignorespaces Calculating a square bounding box from an input route. $r$ is the route, $b$ is the unmodified bounding box, $b_s$ is the square bounding box. Not shown is how $b_s$ is made larger by a constant value to create a border area.\relax }}{2}{figure.caption.2}}
\providecommand*\caption@xref[2]{\@setref\relax\@undefined{#1}}
\newlabel{fig:RouteToBoundingBox}{{2}{2}{Calculating a square bounding box from an input route. $r$ is the route, $b$ is the unmodified bounding box, $b_s$ is the square bounding box. Not shown is how $b_s$ is made larger by a constant value to create a border area.\relax }{figure.caption.2}{}}
\@writefile{toc}{\contentsline {subsection}{\numberline {3.2}Interaction types}{2}{subsection.3.2}}
\@writefile{toc}{\contentsline {section}{\numberline {4}Route Data}{2}{section.4}}
\@writefile{toc}{\contentsline {subsection}{\numberline {4.1}Server architecture}{2}{subsection.4.1}}
\@writefile{toc}{\contentsline {subsection}{\numberline {4.2}Calculating a bounding box}{2}{subsection.4.2}}
\newlabel{BoundingBoxCalculation}{{4.2}{2}{Calculating a bounding box}{subsection.4.2}{}}
\citation{DegreeMeterFormulas}
\citation{TerrainRendering}
\citation{TerrainRendering}
\citation{TerrainRendering}
\citation{TerrainRendering}
\citation{TerrainRendering}
\@LN@col{1}
\newlabel{LatitudeMeterEquation}{{1}{3}{Calculating a bounding box}{figure.caption.2}{}}
\newlabel{LongitudeMeterEquation}{{2}{3}{Calculating a bounding box}{figure.caption.2}{}}
\@writefile{toc}{\contentsline {subsection}{\numberline {4.3}Conversion to engine units}{3}{subsection.4.3}}
\@writefile{toc}{\contentsline {section}{\numberline {5}Terrain generation}{3}{section.5}}
\newlabel{TerrainGeneration}{{5}{3}{Terrain generation}{section.5}{}}
\@LN@col{2}
\@writefile{lof}{\contentsline {figure}{\numberline {3}{\ignorespaces Level of Detail for terrain generation from\nobreakspace  {}\cite {TerrainRendering}\relax }}{3}{figure.caption.3}}
\newlabel{fig:TerrainLOD}{{3}{3}{Level of Detail for terrain generation from~\protect \cite {TerrainRendering}\relax }{figure.caption.3}{}}
\@writefile{toc}{\contentsline {subsection}{\numberline {5.1}Levels of Detail}{3}{subsection.5.1}}
\@writefile{toc}{\contentsline {subsection}{\numberline {5.2}Generating Tiles}{3}{subsection.5.2}}
\citation{bingAPI}
\citation{mapzenAPI}
\citation{satelliteData}
\citation{BingTileSystem}
\citation{BingTileSystem}
\citation{BingTileSystem}
\citation{BingTileSystem}
\@LN@col{1}
\@writefile{lof}{\contentsline {figure}{\numberline {4}{\ignorespaces A wireframe rendering of multiple levels of detail. The density of polygons is rapidly increasing towards the center. The amount of subdivisions per tile is untypically low here, to make the individual levels visible. In our application one tile can have up to 128 x 128 polygons.\relax }}{4}{figure.caption.4}}
\newlabel{fig:WireframeLoD}{{4}{4}{A wireframe rendering of multiple levels of detail. The density of polygons is rapidly increasing towards the center. The amount of subdivisions per tile is untypically low here, to make the individual levels visible. In our application one tile can have up to 128 x 128 polygons.\relax }{figure.caption.4}{}}
\@writefile{toc}{\contentsline {subsection}{\numberline {5.3}Consequences of this method}{4}{subsection.5.3}}
\newlabel{TerrainRendererProperties}{{5.3}{4}{Consequences of this method}{subsection.5.3}{}}
\@LN@col{2}
\@writefile{lof}{\contentsline {figure}{\numberline {5}{\ignorespaces Multiple levels of detail, with the route in red at the center. Here it is visible that the bounding box has been expanded to create a border area. Rendered in Unity.\relax }}{4}{figure.caption.5}}
\newlabel{fig:SatelliteImageLoD}{{5}{4}{Multiple levels of detail, with the route in red at the center. Here it is visible that the bounding box has been expanded to create a border area. Rendered in Unity.\relax }{figure.caption.5}{}}
\@writefile{toc}{\contentsline {section}{\numberline {6}Loading Map Data}{4}{section.6}}
\@writefile{toc}{\contentsline {subsection}{\numberline {6.1}Satellite images}{4}{subsection.6.1}}
\newlabel{Satellite map loading}{{6.1}{4}{Satellite images}{subsection.6.1}{}}
\citation{mapzenAPI}
\citation{mapzenAPI}
\@LN@col{1}
\@writefile{lof}{\contentsline {figure}{\numberline {6}{\ignorespaces A representation of the map tiles used internally by Bing Maps and in the API of Mapzen. It shows all tiles at zoom level 3. Taken from \cite {BingTileSystem}\relax }}{5}{figure.caption.6}}
\@writefile{toc}{\contentsline {subsection}{\numberline {6.2}Heightmap}{5}{subsection.6.2}}
\newlabel{HeightmapLoading}{{6.2}{5}{Heightmap}{subsection.6.2}{}}
\@writefile{toc}{\contentsline {subsubsection}{\numberline {6.2.1}Tile coordinate system}{5}{subsubsection.6.2.1}}
\newlabel{eqt:tileCoordX}{{6}{5}{Tile coordinate system}{equation.6.6}{}}
\newlabel{eqt:tileCoordY}{{7}{5}{Tile coordinate system}{equation.6.7}{}}
\@writefile{toc}{\contentsline {subsubsection}{\numberline {6.2.2}Loading height maps}{5}{subsubsection.6.2.2}}
\@LN@col{2}
\@writefile{lof}{\contentsline {figure}{\numberline {7}{\ignorespaces An example of the selection process of height map tiles. The black area is the current LoD. First the red zoom level is checked, but more than 4 tiles would be required to fill the bounding box. With the green zoom level the requirement is met.\relax }}{5}{figure.caption.7}}
\newlabel{fig:TileZoomLevelSearch}{{7}{5}{An example of the selection process of height map tiles. The black area is the current LoD. First the red zoom level is checked, but more than 4 tiles would be required to fill the bounding box. With the green zoom level the requirement is met.\relax }{figure.caption.7}{}}
\@writefile{lof}{\contentsline {figure}{\numberline {8}{\ignorespaces Height map, provided by Mapzen \cite {mapzenAPI}.\relax }}{5}{figure.caption.8}}
\newlabel{fig:HeightmapImage}{{8}{5}{Height map, provided by Mapzen \protect \cite {mapzenAPI}.\relax }{figure.caption.8}{}}
\@writefile{toc}{\contentsline {subsubsection}{\numberline {6.2.3}Accessing height information}{5}{subsubsection.6.2.3}}
\newlabel{LatLongToHeight}{{6.2.3}{5}{Accessing height information}{subsubsection.6.2.3}{}}
\citation{mapzenAPI}
\citation{OculusGuide}
\citation{OculusGuide}
\citation{OculusGuide}
\citation{CatmullRomSpline}
\@LN@col{1}
\@writefile{toc}{\contentsline {subsubsection}{\numberline {6.2.4}Decoding height map data}{6}{subsubsection.6.2.4}}
\newlabel{MapzenDecode}{{8}{6}{Decoding height map data}{equation.6.8}{}}
\@writefile{toc}{\contentsline {section}{\numberline {7}Visual improvements}{6}{section.7}}
\newlabel{VisualImprovements}{{7}{6}{Visual improvements}{section.7}{}}
\@writefile{toc}{\contentsline {section}{\numberline {8}Movement}{6}{section.8}}
\newlabel{Movement}{{8}{6}{Movement}{section.8}{}}
\@writefile{toc}{\contentsline {subsection}{\numberline {8.1}Teleportation Based Movement}{6}{subsection.8.1}}
\@LN@col{2}
\@writefile{lof}{\contentsline {figure}{\numberline {9}{\ignorespaces Calculating the teleportation target position T, by summing up the linear distance from start point S.\relax }}{6}{figure.caption.9}}
\newlabel{fig:TeleportMovement}{{9}{6}{Calculating the teleportation target position T, by summing up the linear distance from start point S.\relax }{figure.caption.9}{}}
\@writefile{toc}{\contentsline {subsection}{\numberline {8.2}Guided Movement}{6}{subsection.8.2}}
\@writefile{toc}{\contentsline {subsection}{\numberline {8.3}Aerial Movement}{6}{subsection.8.3}}
\citation{ParallaxCorrectedCubemaps}
\@LN@col{1}
\@writefile{lof}{\contentsline {figure}{\numberline {10}{\ignorespaces Hiking route, close distance. Nearby areas in are strongly blurred, recognition is almost impossible.\relax }}{7}{figure.caption.10}}
\newlabel{fig:HikingNear}{{10}{7}{Hiking route, close distance. Nearby areas in are strongly blurred, recognition is almost impossible.\relax }{figure.caption.10}{}}
\@writefile{toc}{\contentsline {section}{\numberline {9}Future improvements}{7}{section.9}}
\@writefile{toc}{\contentsline {subsection}{\numberline {9.1}Terrain rendering for flights}{7}{subsection.9.1}}
\newlabel{Flightmode Rendering}{{9.1}{7}{Terrain rendering for flights}{subsection.9.1}{}}
\@writefile{toc}{\contentsline {subsection}{\numberline {9.2}Server architecture}{7}{subsection.9.2}}
\@writefile{toc}{\contentsline {subsection}{\numberline {9.3}Environmental cubemaps}{7}{subsection.9.3}}
\@writefile{lof}{\contentsline {figure}{\numberline {11}{\ignorespaces Hiking route, medium distance. The landscape is detailed enough to recognize broad detail.\relax }}{7}{figure.caption.11}}
\newlabel{fig:HikingMid}{{11}{7}{Hiking route, medium distance. The landscape is detailed enough to recognize broad detail.\relax }{figure.caption.11}{}}
\@writefile{lof}{\contentsline {figure}{\numberline {12}{\ignorespaces Hiking route, far distance. Distant mountains can be clearly seen and recognized.\relax }}{7}{figure.caption.12}}
\newlabel{fig:HikingFar}{{12}{7}{Hiking route, far distance. Distant mountains can be clearly seen and recognized.\relax }{figure.caption.12}{}}
\@writefile{lof}{\contentsline {figure}{\numberline {13}{\ignorespaces Bicycle route, close distance. Only general shapes are visible, textures are blurred beyond recognition.\relax }}{7}{figure.caption.13}}
\newlabel{fig:BicycleNear}{{13}{7}{Bicycle route, close distance. Only general shapes are visible, textures are blurred beyond recognition.\relax }{figure.caption.13}{}}
\@writefile{lof}{\contentsline {figure}{\numberline {14}{\ignorespaces Bicycle route, medium distance. Texture resolution is still too low for any detail to be visible. Vague mountain shapes can be seen.\relax }}{7}{figure.caption.14}}
\newlabel{fig:BicycleMid}{{14}{7}{Bicycle route, medium distance. Texture resolution is still too low for any detail to be visible. Vague mountain shapes can be seen.\relax }{figure.caption.14}{}}
\bibstyle{acmsiggraph}
\citation{*}
\bibdata{BachelorThesis}
\bibcite{TerrainRendering}{\citename {Bai et\nobreakspace  {}al\unhbox \voidb@x \hbox {.} }2013}
\bibcite{CatmullRomSpline}{\citename {Catmull and Rom }1974}
\bibcite{satelliteData}{\citename {de\nobreakspace  {}Ferranti and Hormann }2014}
\bibcite{igcFormat}{\citename {Forster-Lewis }2009}
\bibcite{GoogleEarthVR}{\citename {Google }2016a}
\bibcite{GoogleMaps}{\citename {Google }2016b}
\bibcite{DegreeMeterFormulas}{\citename {Huber }2013}
\bibcite{HumanCenteredDesign}{\citename {Jerald and Marks }2016}
\@writefile{lof}{\contentsline {figure}{\numberline {15}{\ignorespaces Bicycle route, far distance. Distant mountains can be seen with adequat detail.\relax }}{8}{figure.caption.15}}
\newlabel{fig:BicycleFar}{{15}{8}{Bicycle route, far distance. Distant mountains can be seen with adequat detail.\relax }{figure.caption.15}{}}
\@writefile{lof}{\contentsline {figure}{\numberline {16}{\ignorespaces Flight route, close distance. Textures are blurred, but the general shape of the landscape is recognizable.\relax }}{8}{figure.caption.16}}
\newlabel{fig:FlightNear}{{16}{8}{Flight route, close distance. Textures are blurred, but the general shape of the landscape is recognizable.\relax }{figure.caption.16}{}}
\@writefile{lof}{\contentsline {figure}{\numberline {17}{\ignorespaces Flight route, medium distance. The texture quality is good enough for smaller details to be visible.\relax }}{8}{figure.caption.17}}
\newlabel{fig:FlightMid}{{17}{8}{Flight route, medium distance. The texture quality is good enough for smaller details to be visible.\relax }{figure.caption.17}{}}
\@writefile{lof}{\contentsline {figure}{\numberline {18}{\ignorespaces Flight route, far distance. Highly detailed, distant terrain is structured and well recognizable.\relax }}{8}{figure.caption.18}}
\newlabel{fig:FlightFar}{{18}{8}{Flight route, far distance. Highly detailed, distant terrain is structured and well recognizable.\relax }{figure.caption.18}{}}
\@LN@col{2}
\@writefile{lot}{\contentsline {table}{\numberline {1}{\ignorespaces A comparison of download sizes and loading times, with regards to route path lengths. Due to the properties of our method, the difference between three main use cases are insignificant. However, the visual quality varies strongly, as can be seen in figures \ref  {fig:HikingNear}-\ref  {fig:FlightFar}.\relax }}{8}{table.caption.19}}
\newlabel{tbl:evaluation}{{1}{8}{A comparison of download sizes and loading times, with regards to route path lengths. Due to the properties of our method, the difference between three main use cases are insignificant. However, the visual quality varies strongly, as can be seen in figures \ref {fig:HikingNear}-\ref {fig:FlightFar}.\relax }{table.caption.19}{}}
\@writefile{toc}{\contentsline {section}{\numberline {10}Evaluation}{8}{section.10}}
\@writefile{toc}{\contentsline {section}{\numberline {11}Conclusion}{8}{section.11}}
\bibcite{mapzenAPI}{\citename {Mapzen }2016}
\bibcite{bingAPI}{\citename {Microsoft }2016a}
\bibcite{BingTileSystem}{\citename {Microsoft }2016b}
\bibcite{OculusGuide}{\citename {Oculus }2016}
\bibcite{kmlFormat}{\citename {Open Geospacial\nobreakspace  {}Consortium }2015}
\bibcite{ParallaxCorrectedCubemaps}{\citename {S{\'e}bastien and Zanuttini }2012}
\bibcite{gpxFormat}{\citename {Topografix }2004}
\bibcite{Unity3D}{\citename {Unity }2005}
\bibcite{StreetViewVR}{\citename {VIRTUAL }2016}
\@LN@col{1}
\@LN@col{2}
